// Jest Snapshot v1, https://goo.gl/fbAQLP

exports[`BitcoinPrice/Tile.vue matches snapshot with a valid currency code 1`] = `
<v-card-stub tag="div" class="tile-card">
  <div class="currency-label">
    USD
  </div>
  <div class="rate-label">
    $5,526.42
  </div>
</v-card-stub>
`;

exports[`BitcoinPrice/Tile.vue matches snapshot with an invalid currency code 1`] = `
<v-card-stub tag="div" class="tile-card">
  <div class="currency-label">
    USDx
  </div>
  <div class="rate-label">
    5,526.42 [USDx]
  </div>
</v-card-stub>
`;
